<?xml version="1.0" encoding="UTF-8" standalone="no"?>
<!-- Created with Inkscape (http://www.inkscape.org/) -->

<svg
   xmlns:dc="http://purl.org/dc/elements/1.1/"
   xmlns:cc="http://creativecommons.org/ns#"
   xmlns:rdf="http://www.w3.org/1999/02/22-rdf-syntax-ns#"
   xmlns:svg="http://www.w3.org/2000/svg"
   xmlns="http://www.w3.org/2000/svg"
   xmlns:sodipodi="http://sodipodi.sourceforge.net/DTD/sodipodi-0.dtd"
   xmlns:inkscape="http://www.inkscape.org/namespaces/inkscape"
   id="svg2"
   version="1.1"
   inkscape:version="0.91 r13725"
   width="260.89508"
   height="47.027168"
   viewBox="0 0 260.89508 47.027168"
   sodipodi:docname="jubilee.svg">
  <metadata
     id="metadata8">
    <rdf:RDF>
      <cc:Work
         rdf:about="">
        <dc:format>image/svg+xml</dc:format>
        <dc:type
           rdf:resource="http://purl.org/dc/dcmitype/StillImage" />
        <dc:title></dc:title>
      </cc:Work>
    </rdf:RDF>
  </metadata>
  <defs
     id="defs6" />
  <sodipodi:namedview
     pagecolor="#ffffff"
     bordercolor="#666666"
     borderopacity="1"
     objecttolerance="10"
     gridtolerance="10"
     guidetolerance="10"
     inkscape:pageopacity="0"
     inkscape:pageshadow="2"
     inkscape:window-width="1600"
     inkscape:window-height="1163"
     id="namedview4"
     showgrid="false"
     fit-margin-top="0"
     fit-margin-left="0"
     fit-margin-right="0"
     fit-margin-bottom="0"
     inkscape:zoom="1.0479233"
     inkscape:cx="-160.9375"
     inkscape:cy="21.801563"
     inkscape:window-x="0"
     inkscape:window-y="0"
     inkscape:window-maximized="1"
     inkscape:current-layer="svg2" />
  <path
     style="fill:#000000"
     d="M 6.378302,45.563075 C 2.50652,43.877983 0,40.425458 0,36.77749 0,34.47231 0.430466,34 2.531385,34 c 1.53817,0 2.74356,0.68663 3.072151,1.75 1.673268,5.414937 5.367527,7.33305 10.237916,5.315669 C 20.171123,39.27226 21,35.7831 21,19.35077 L 21,5 12,5 C 3.066667,5 3,4.9815 3,2.5 L 3,0 15.077915,0 27.155829,0 26.827915,18.75 c -0.378479,21.64122 -1.0469,23.920095 -7.809734,26.626045 -4.881704,1.95327 -8.459989,2.006218 -12.639879,0.18703 z M 45.320985,45.386702 C 39.675365,42.602524 38.672768,38.7887 38.187155,18.25 L 37.755656,0 40.877828,0 44,0 44.02386,15.75 c 0.02579,17.02753 0.886845,22.98031 3.612307,24.97322 2.560551,1.872321 7.796052,1.556836 10.503052,-0.632901 2.310041,-1.868629 2.36746,-2.320009 2.671395,-20.999999 L 61.121221,0 l 2.939391,0 2.93939,0 -0.022,17.75 c -0.0187,15.10862 -0.29744,18.35652 -1.87315,21.825857 -3.068728,6.756613 -12.342706,9.480526 -19.783907,5.810845 z M 77.999998,23 l 0,-23 9.75,0.004 c 7.84806,0.003 10.36387,0.37805 12.896912,1.9226 3.60932,2.20084 5.89374,7.76738 4.87404,11.87676 -0.80713,3.25271 -4.27243,7.16598 -6.445262,7.27847 -0.86663,0.0449 -0.1262,0.71585 1.645412,1.49108 4.18329,1.83054 6.38878,5.30554 6.45594,10.1721 0.13197,9.562232 -5.49521,13.255286 -20.197282,13.255286 l -8.97976,0 0,-22.999996 z m 20.36514,15.927416 C 100.41255,37.31693 101,35.9792 101,32.92742 c 0,-5.37396 -2.465082,-7.59174 -9.401582,-8.45839 -8.37376,-1.04624 -8.59842,-0.82416 -8.59842,8.49958 l 0,8.031386 6.36514,0 c 4.92525,0 6.96119,-0.46885 9,-2.07258 z m -3.6088,-19.992326 c 3.57597,-1.24659 5.667082,-5.39988 4.68627,-9.30773 C 98.536088,6.01548 96.258868,5 89.065738,5 l -6.06574,0 0,7.5 0,7.5 4.35078,0 c 2.39292,0 5.72543,-0.47921 7.40556,-1.06491 z m 23.424112,24.814906 c 0.26564,-1.870424 1.03653,-2.301875 4.56955,-2.557498 L 127,40.885 127,22.4425 127,4 122.5,4 C 118.66667,4 118,3.7037 118,2 c 0,-1.88406 0.66667,-2 11.5,-2 10.83333,0 11.5,0.11594 11.5,2 0,1.66666 -0.66667,2 -4,2 l -4,0 0,18.5 0,18.499996 4,0 c 3.6,0 4,0.25 4,2.5 l 0,2.5 -11.56955,0 c -11.42607,0 -11.56559,-0.0279 -11.25,-2.25 z M 155,23 l 0,-23 3,0 3,0 0,20.5 0,20.499996 11.5,0 11.5,0 0,2.5 0,2.5 -14.5,0 -14.5,0 L 155,23 Z m 39,0 0,-23 13.5,0 c 12.83333,0 13.5,0.0988 13.5,2 0,1.87301 -0.66667,2 -10.5,2 l -10.5,0 0,8 0,8 10,0 c 10,0 10,0 10,2.5 0,2.5 0,2.5 -10,2.5 l -10,0 0,8 0,7.999996 11,0 11,0 0,2.5 0,2.5 -14,0 -14,0 L 194,23 Z m 38,0 0,-23 14,0 c 13.25303,0 14,0.1049 14,1.96616 0,1.81536 -0.82456,1.98794 -10.75,2.25 L 238.5,4.5 l -0.29206,7.75 -0.29207,7.75 10.61162,0 c 10.43265,0 10.60622,0.0379 10.29206,2.25 -0.30454,2.14429 -0.8011,2.26338 -10.56955,2.53498 l -10.25,0.28498 0,7.93227 0,7.932264 11.25,0.282751 c 10.80657,0.271606 11.2626,0.371437 11.56955,2.532751 0.31884,2.245001 0.28718,2.25 -14.25,2.25 L 232,45.999996 232,23 Z"
     id="path4140"
     inkscape:connector-curvature="0" />
</svg>
