<?xml version="1.0" encoding="UTF-8"?>
<glyph name="eta" format="1">
  <advance width="815"/>
  <unicode hex="03B7"/>
  <outline>
    <contour>
      <point x="560" y="-223" type="line"/>
      <point x="725" y="-223" type="line"/>
      <point x="725" y="340" type="line"/>
      <point x="725" y="481"/>
      <point x="649" y="568"/>
      <point x="465" y="568" type="curve"/>
      <point x="245" y="568"/>
      <point x="233" y="398"/>
      <point x="233" y="398" type="curve"/>
      <point x="186" y="555" type="line"/>
      <point x="90" y="555" type="line"/>
      <point x="90" y="0" type="line"/>
      <point x="255" y="0" type="line"/>
      <point x="255" y="336" type="line"/>
      <point x="255" y="336"/>
      <point x="289" y="458"/>
      <point x="420" y="458" type="curve"/>
      <point x="509" y="458"/>
      <point x="560" y="422"/>
      <point x="560" y="348" type="curve"/>
    </contour>
  </outline>
  <lib>
    <dict>
      <key>com.schriftgestaltung.Glyphs.lastChange</key>
      <string>2018-04-05 15:27:41 +0000</string>
    </dict>
  </lib>
</glyph>
